[
	{
		"name": "id",
		"dbType": "increments",
		"htmlType": "",
		"validations": "",
		"primary": true,
		"searchable": false,
		"fillable": false,
		"inForm": false,
		"inIndex": false
	},
	{
		"name": "shop_id",
		"dbType": "integer:unsigned:foreign,shops,id",
		"htmlType": "select,shops:id",
		"relation": "mt1,shops,shop_id,id",
		"validations": "required",
		"primary": false,
		"searchable": true,
		"fillable": true,
		"inForm": true,
		"inIndex": true
	},
	{
		"name": "owner_id",
		"dbType": "integer:unsigned:foreign,customers,id",
        "htmlType": "select,customers:id",
        "relation": "mt1,customers,customer_id,id",
		"validations": "",
		"primary": false,
		"searchable": true,
		"fillable": true,
		"inForm": true,
		"inIndex": true
	},
	{
		"name": "price",
		"dbType": "float",
		"htmlType": "number",
		"validations": "required",
		"primary": false,
		"searchable": true,
		"fillable": true,
		"inForm": true,
		"inIndex": true
	},
	{
		"name": "is_sold",
		"dbType": "boolean:default(false)",
		"htmlType": "checkbox",
		"validations": "required",
		"primary": false,
		"searchable": true,
		"fillable": true,
		"inForm": true,
		"inIndex": true
	},
	{
		"name": "created_at",
		"dbType": "timestamp",
		"htmlType": "",
		"validations": "",
		"primary": false,
		"searchable": false,
		"fillable": false,
		"inForm": false,
		"inIndex": false
	},
	{
		"name": "updated_at",
		"dbType": "timestamp",
		"htmlType": "",
		"validations": "",
		"primary": false,
		"searchable": false,
		"fillable": false,
		"inForm": false,
		"inIndex": false
	}
]
